{
  "TIPOCAMBIO": 1,
  "IDCONCEPTO": 5,
  "F_FACTURA": "06/09/2019",
  "F_FACTURA2": "06/09/2019",
  "serie": "COM",
  "FOLIO": 1,
  "MONEDA": "MXN",
  "AGENTE": "",
  "COD_CLIENTE": "DI-2339",
  "CLIENTE": "CHRISTIAN JOSE ROJAS ROJAS",
  "RFC": "RORC66040761A",
  "CURP": "",
  "CALLE": "PATRIOTISMO",
  "NO_EXT": "23",
  "NO_INT": "",
  "COLONIA": "ESCANDON",
  "CP": "11800",
  "TEL": "",
  "CIUDAD": "",
  "MUNICIPIO": "MIGUEL HIDALGO",
  "ESTADO": "CDMX",
  "PAIS": "Mexico",
  "EMAIL1": "angel.ramos@descon.mx",
  "EMAIL2": "NA",
  "EMAIL3": "NA",
  "EMAIL": "NA",
  "WEB": "",
  "CUENTA": "7549",
  "CONDICIONES": "CONTADO",
  "METODO": "1",
  "referencia": "Referencia",
  "ID_EMPRESA": "1",
  "FORMA_PAGO": "Pue",
  "NUMERO_PARCIALIDAD": "1",
  "cusocfdi": "G03",
  "OBSERVA_DOCTO": "este documento se creo desde el json",
  "TEXTOEXTRA01": "",
  "listamovimiento": [
    {
      "aConsecutivo": "100",
      "aUnidades": "1",
      "aPrecio": "100",
      "aCosto": "0",
      "aCodProdSer": "P001",
      "aCodAlmacen": "1",
      "aReferencia": "",
      "aCodClasificacion": ""
    },
     {
      "aConsecutivo": "100",
      "aUnidades": "1",
      "aPrecio": "100",
      "aCosto": "0",
      "aCodProdSer": "P001",
      "aCodAlmacen": "1",
      "aReferencia": "",
      "aCodClasificacion": ""
    }
    ]
}